#!/bin/bash

clr_brown " "
clr_brown " "
clr_brown "  _    _      _                            _             ______     _____   ______    _____"
clr_brown " | |  | |    | |                          | |            | ___ \   |_   _|  | ___ \  /  ___|"
clr_white " | |  | | ___| | ___ ___  _ __ ___   ___  | |_  __       | |_/ /     | |    | |_/ /  \ \`--."
clr_white " | |/\\| |/ _ \\ |/ __/ _ \\| '_ \` _ \\ / _ \\ | __/ _ \\      |    /      | |    | ___ \\   \`--. \\ "
clr_brown " \  /\  /  __/ | (_| (_) | | | | | |  __/ | || (_) |     | |\ \ _   _| |__  | |_/ /  /\__/ /"
clr_white "  \/  \/ \___|_|\___\___/|_| |_| |_|\___|  \__\___/      \_| \_(_)  \___(_) \____(_) \____(_)"
echo ""
